^E:\CAPSTONE\PROJTEST\PROJTEST\PROJTEST\CLASSDATA.CPP|E:\CAPSTONE\PROJTEST\PROJTEST\PROJTEST\DATAGET.CPP|E:\CAPSTONE\PROJTEST\PROJTEST\PROJTEST\MAIN.CPP
E:\CAPSTONE\PROJTEST\PROJTEST\PROJTEST\DEBUG\VC141.PDB
E:\CAPSTONE\PROJTEST\PROJTEST\PROJTEST\DEBUG\VC141.IDB
E:\CAPSTONE\PROJTEST\PROJTEST\PROJTEST\DEBUG\MAIN.OBJ
E:\CAPSTONE\PROJTEST\PROJTEST\PROJTEST\DEBUG\DATAGET.OBJ
E:\CAPSTONE\PROJTEST\PROJTEST\PROJTEST\DEBUG\CLASSDATA.OBJ
^E:\CAPSTONE\PROJTEST\PROJTEST\PROJTEST\DATAGET.CPP
E:\CAPSTONE\PROJTEST\PROJTEST\PROJTEST\DEBUG\VC141.PDB
^E:\CAPSTONE\PROJTEST\PROJTEST\PROJTEST\MAIN.CPP
E:\CAPSTONE\PROJTEST\PROJTEST\PROJTEST\DEBUG\VC141.PDB
E:\CAPSTONE\PROJTEST\PROJTEST\PROJTEST\DEBUG\VC141.IDB
E:\CAPSTONE\PROJTEST\PROJTEST\PROJTEST\DEBUG\MAIN.OBJ
^E:\CAPSTONE\PROJTEST\PROJTEST\PROJTEST\CLASSDATA.CPP
E:\CAPSTONE\PROJTEST\PROJTEST\PROJTEST\DEBUG\VC141.PDB
E:\CAPSTONE\PROJTEST\PROJTEST\PROJTEST\DEBUG\VC141.IDB
E:\CAPSTONE\PROJTEST\PROJTEST\PROJTEST\DEBUG\CLASSDATA.OBJ
